783 "1" 0
1056 "1" 58
1281 "1" 116 160
1306 "1" 133
1373 "1" 52
1398 "1" 213
1419 "1" 71 144 241
1639 "1" 0
1650 "1" 0
1719 "1" 52
1848 "1" 90
2100 "1" 96 177
2104 "1" 115 159 214
2360 "1" 97
2745 "1" 77 121
2796 "1" 75 175 250
2824 "1" 131
2843 "1" 139 213
3150 "1" 0
3415 "1" 126
3451 "1" 163 252
3655 "1" 99 187
3715 "1" 64 128
3754 "1" 0
4053 "1" 67 252
4203 "1" 0
4715 "1" 186
4924 "1" 47 121 200
5481 "1" 47 215
5595 "1" 80 150
6248 "1" 95 152
6271 "1" 153 218
6356 "1" 159
6751 "1" 0
6834 "1" 51 129
6861 "1" 0
6874 "1" 95
6921 "1" 0
6927 "1" 100 154
6973 "1" 68 112
7576 "1" 78
7577 "1" 55 101 217
7659 "1" 70 131
7920 "1" 0
8064 "1" 0
8146 "1" 246
8207 "1" 115
8380 "1" 0
8433 "1" 97 157
8617 "1" 0
8668 "1" 75 205
8673 "1" 76 120
8930 "1" 76 162 206
8944 "1" 82 143 187
8989 "1" 57 108
9377 "1" 78 127
9746 "1" 111
9749 "1" 0
9774 "1" 60 107
10006 "1" 0
10036 "1" 114
10187 "1" 116 169
10189 "1" 96 155
10199 "1" 71 120 191 253
10205 "1" 72 138
10217 "1" 59 133 253
10512 "1" 56 220
10544 "1" 82
10554 "1" 44
10568 "1" 180 236
10903 "1" 53 107
11056 "1" 0
11249 "1" 252
11346 "1" 0
12108 "1" 51 213
12507 "1" 219
12706 "1" 0
12947 "1" 115 159
13039 "1" 95 219
13177 "1" 0
13231 "1" 253
13234 "1" 242
13235 "1" 53 102
13263 "1" 70 154
13324 "1" 68 127 187
13501 "1" 50 114
13517 "1" 70 125
13582 "1" 131
13776 "1" 112 198 242
14001 "1" 253
14014 "1" 175 220
14100 "1" 74 241
14119 "1" 73 139
14188 "1" 52 99
14344 "1" 147 191
14480 "1" 105 250
14541 "1" 0
14839 "1" 159 253
14918 "1" 166 210
14939 "1" 0
