14 "1" 119 163
135 "1" 189
137 "1" 44 88 171
157 "1" 44
243 "1" 250
244 "1" 79 209
245 "1" 0
310 "1" 77 130
372 "1" 0
535 "1" 87 137 218
565 "1" 136
868 "1" 78 176
869 "1" 68 171 238
870 "1" 63 115
871 "1" 46 158 203
873 "1" 75 250
874 "1" 44 140
875 "1" 68 214
877 "1" 73 158 204
971 "1" 0
1051 "1" 0
1151 "1" 69 159
1322 "1" 119
1451 "1" 113
1651 "1" 0
1736 "1" 0
1888 "1" 251
1910 "1" 76
2235 "1" 130
2271 "1" 66
2314 "1" 58
2379 "1" 60 158
2621 "1" 44 194
2737 "1" 0
2828 "1" 0
2888 "1" 73 184 253
2996 "1" 73
3049 "1" 0
3054 "1" 0
3197 "1" 228
3301 "1" 44 161 214
3362 "1" 206 250
3411 "1" 0
3517 "1" 111
3559 "1" 0
3619 "1" 59 113
3751 "1" 221
3877 "1" 212
3900 "1" 79 123 167
3951 "1" 213
3957 "1" 228
3981 "1" 0
3988 "1" 53 104
4038 "1" 0
4081 "1" 88 145
4085 "1" 53 99
4150 "1" 123
4153 "1" 0
4205 "1" 60 119
4365 "1" 143
4521 "1" 53 111 194 249
4768 "1" 130
4786 "1" 189 253
4934 "1" 80 137
5239 "1" 115 246
5240 "1" 47 101 145
5309 "1" 239
5321 "1" 76 134
5381 "1" 88 245
5430 "1" 123 195
5508 "1" 53
5621 "1" 84 145
5647 "1" 210
5648 "1" 101
5675 "1" 57 119 190
5676 "1" 0
5677 "1" 51 228
5678 "1" 101
5826 "1" 130
5835 "1" 0
5928 "1" 86 194 238
5978 "1" 57
6030 "1" 53
6106 "1" 49 176
6331 "1" 86
6344 "1" 59 123 226
6417 "1" 115 159 218
6421 "1" 46 91 159
6551 "1" 69 149 214
6877 "1" 145 209
7015 "1" 115 182
7243 "1" 47 123
7246 "1" 102 146
7349 "1" 115 220
7530 "1" 45 131
7731 "1" 48
7846 "1" 53
7870 "1" 141
7963 "1" 64 113
8122 "1" 113 210
