783 "1" 118 162
1056 "1" 79
1281 "1" 116 160
1306 "1" 134
1373 "1" 52
1398 "1" 123 170
1419 "1" 71 130 184
1639 "1" 0
1650 "1" 0
1719 "1" 51
1848 "1" 90 210
2100 "1" 97 177
2104 "1" 115 159 212
2360 "1" 104
2745 "1" 0
2796 "1" 79 175 223
2824 "1" 170
2843 "1" 79 158
3150 "1" 0
3415 "1" 0
3451 "1" 163 253
3655 "1" 59 111 183
3715 "1" 44 130
3754 "1" 0
4053 "1" 67 253
4203 "1" 0
4715 "1" 186
4924 "1" 47 123 228
5481 "1" 113 158
5595 "1" 80
6248 "1" 102 158
6271 "1" 0
6356 "1" 79
6751 "1" 0
6834 "1" 99 144
6861 "1" 97 141
6874 "1" 95
6921 "1" 0
6927 "1" 150
6973 "1" 83 136
7576 "1" 79
7577 "1" 57 101 217
7659 "1" 70 132
7920 "1" 104
8064 "1" 0
8146 "1" 150 246
8207 "1" 119 163
8380 "1" 0
8433 "1" 97 158
8617 "1" 0
8668 "1" 212
8673 "1" 71 115
8930 "1" 76 162 206
8944 "1" 83 143 187
8989 "1" 111
9377 "1" 130
9746 "1" 111
9749 "1" 0
9774 "1" 53 111
10006 "1" 0
10036 "1" 115
10187 "1" 119 166
10189 "1" 70 130 188
10199 "1" 119 253
10205 "1" 119
10217 "1" 135 251
10512 "1" 132 177
10544 "1" 115
10554 "1" 44
10568 "1" 0
10903 "1" 0
11056 "1" 0
11249 "1" 253
11346 "1" 0
12108 "1" 52 158 213
12507 "1" 219
12706 "1" 115
12947 "1" 84 130
13039 "1" 104 219
13177 "1" 0
13231 "1" 97
13234 "1" 123
13235 "1" 53 102
13263 "1" 70 158
13324 "1" 68 158
13501 "1" 50 115
13517 "1" 102 146
13582 "1" 160
13776 "1" 90 198 242
14001 "1" 253
14014 "1" 81 175 220
14100 "1" 70 251
14119 "1" 73 139
14188 "1" 52 139
14344 "1" 145 191 244
14480 "1" 111 250
14541 "1" 67 111 251
14839 "1" 150 253
14918 "1" 166 210
14939 "1" 46 90
