(8,)
Recall (all):		0.6239316239316239
Precision (all):	0.6952380952380952
F1score: 0.6576576576576577
(16,)
Recall (all):		0.6324786324786325
Precision (all):	0.7708333333333334
F1score: 0.6948356807511736
(32,)
Recall (all):		0.6239316239316239
Precision (all):	0.7019230769230769
F1score: 0.6606334841628959
(64,)
Recall (all):		0.6324786324786325
Precision (all):	0.7326732673267327
F1score: 0.6788990825688073
(4, 8)
Recall (all):		0.6410256410256411
Precision (all):	0.7142857142857143
F1score: 0.6756756756756757
(8, 16)
Recall (all):		0.6410256410256411
Precision (all):	0.6944444444444444
F1score: 0.6666666666666666
(16, 32)
Recall (all):		0.6581196581196581
Precision (all):	0.7403846153846154
F1score: 0.6968325791855204
(32, 64)
Recall (all):		0.6410256410256411
Precision (all):	0.7575757575757576
F1score: 0.6944444444444444
(4, 16)
Recall (all):		0.6324786324786325
Precision (all):	0.7184466019417476
F1score: 0.6727272727272726
(8, 32)
Recall (all):		0.6410256410256411
Precision (all):	0.7075471698113207
F1score: 0.6726457399103138
(16, 64)
Recall (all):		0.6666666666666666
Precision (all):	0.7289719626168224
F1score: 0.6964285714285714
(8, 4)
Recall (all):		0.6324786324786325
Precision (all):	0.7184466019417476
F1score: 0.6727272727272726
(16, 8)
Recall (all):		0.6324786324786325
Precision (all):	0.7115384615384616
F1score: 0.669683257918552
(32, 16)
Recall (all):		0.6495726495726496
Precision (all):	0.7524752475247525
F1score: 0.6972477064220184
(64, 32)
Recall (all):		0.6410256410256411
Precision (all):	0.7211538461538461
F1score: 0.6787330316742082
(16, 4)
Recall (all):		0.6324786324786325
Precision (all):	0.7115384615384616
F1score: 0.669683257918552
(32, 8)
Recall (all):		0.6581196581196581
Precision (all):	0.7475728155339806
F1score: 0.7
(64, 16)
Recall (all):		0.6324786324786325
Precision (all):	0.7115384615384616
F1score: 0.669683257918552
